/* XPM */
static char * xor_xpm[] = {
"20 13 169 2",
"  	c None",
". 	c #FFFFFF",
"+ 	c #D3D4D7",
"@ 	c #868B91",
"# 	c #525D63",
"$ 	c #47575C",
"% 	c #415E5D",
"& 	c #425658",
"* 	c #6C7279",
"= 	c #999DA2",
"- 	c #575F66",
"; 	c #49555C",
"> 	c #425D5C",
", 	c #425B5B",
"' 	c #576067",
") 	c #A7ABAE",
"! 	c #F0F1F1",
"~ 	c #B3B5B9",
"{ 	c #4A6866",
"] 	c #2C9970",
"^ 	c #20BE7E",
"/ 	c #20BB7C",
"( 	c #1DB979",
"_ 	c #2AA073",
": 	c #445358",
"< 	c #656B71",
"[ 	c #2F7660",
"} 	c #1FB77A",
"| 	c #1EBA7A",
"1 	c #1DB577",
"2 	c #20A570",
"3 	c #2D6D59",
"4 	c #656B70",
"5 	c #F2F2F3",
"6 	c #D1D3D5",
"7 	c #496865",
"8 	c #24B47B",
"9 	c #1ECA82",
"0 	c #1DC680",
"a 	c #1CC07C",
"b 	c #1CAE71",
"c 	c #355551",
"d 	c #B2B4B7",
"e 	c #F3F3F4",
"f 	c #485356",
"g 	c #1EA36C",
"h 	c #1BB977",
"i 	c #1BB575",
"j 	c #19AC6F",
"k 	c #18A068",
"l 	c #295D4D",
"m 	c #A7A9AC",
"n 	c #989CA1",
"o 	c #2B8E6A",
"p 	c #1DC27D",
"q 	c #1CBB79",
"r 	c #1AB172",
"s 	c #1D855C",
"t 	c #61666A",
"u 	c #FEFEFE",
"v 	c #96999C",
"w 	c #236E53",
"x 	c #18A56A",
"y 	c #19A86D",
"z 	c #18A268",
"A 	c #179A63",
"B 	c #1A7E55",
"C 	c #5A5E62",
"D 	c #696E75",
"E 	c #1FAC73",
"F 	c #1CBD7A",
"G 	c #1AB273",
"H 	c #18A369",
"I 	c #1E624A",
"J 	c #A0A2A5",
"K 	c #AEB1B3",
"L 	c #2B6955",
"M 	c #19A76C",
"N 	c #179E66",
"O 	c #16935F",
"P 	c #168156",
"Q 	c #3B4246",
"R 	c #646B71",
"S 	c #1DA46D",
"T 	c #19AD70",
"U 	c #169862",
"V 	c #1D5A44",
"W 	c #A4A6A9",
"X 	c #ABAEB1",
"Y 	c #2A6854",
"Z 	c #148959",
"` 	c #15754E",
" .	c #393F42",
"..	c #84888D",
"+.	c #217A59",
"@.	c #179F67",
"#.	c #179C65",
"$.	c #158D5B",
"%.	c #186246",
"&.	c #6A6D70",
"*.	c #84878C",
"=.	c #23805D",
"-.	c #18A168",
";.	c #15915E",
">.	c #127C50",
",.	c #15583E",
"'.	c #66696B",
").	c #C7C8CA",
"!.	c #30524B",
"~.	c #178A5B",
"{.	c #15905D",
"].	c #158E5C",
"^.	c #148857",
"/.	c #14744D",
"(.	c #314241",
"_.	c #D4D5D6",
":.	c #E7E8E9",
"<.	c #415153",
"[.	c #1BA16A",
"}.	c #148757",
"|.	c #116D47",
"1.	c #1E3A33",
"2.	c #B2B3B4",
"3.	c #6E7176",
"4.	c #215A47",
"5.	c #158356",
"6.	c #148556",
"7.	c #148656",
"8.	c #137F52",
"9.	c #26654E",
"0.	c #5A5F64",
"a.	c #6E7377",
"b.	c #2C795F",
"c.	c #18A66B",
"d.	c #169560",
"e.	c #13794E",
"f.	c #164736",
"g.	c #525557",
"h.	c #FDFDFD",
"i.	c #EAEBEB",
"j.	c #616569",
"k.	c #23463C",
"l.	c #156A48",
"m.	c #14754D",
"n.	c #13744C",
"o.	c #196145",
"p.	c #363F42",
"q.	c #373D44",
"r.	c #1F7C58",
"s.	c #199662",
"t.	c #188E5D",
"u.	c #16724D",
"v.	c #1C3E34",
"w.	c #494D50",
"x.	c #DFDFDF",
"y.	c #F8F8F8",
"z.	c #A4A6A8",
"A.	c #4B4E52",
"B.	c #31373A",
"C.	c #32383B",
"D.	c #606365",
"E.	c #BDBDBF",
"F.	c #C6C7C8",
"G.	c #616467",
"H.	c #343B3D",
"I.	c #333A3D",
"J.	c #4A4D51",
"K.	c #9D9EA0",
"L.	c #F3F3F3",
". . . . . . . . . . . . . . . . . . . . ",
". . . + @ # $ % & * = - ; > , ' ) ! . . ",
". . ~ { ] ^ / ( _ : < [ } | 1 2 3 4 5 . ",
". 6 7 8 9 0 a b c d e f g h i j k l m . ",
". n o 0 p q r s t u . v w x y z A B C . ",
". D E F h G H I J . . K L x M N O P Q . ",
". R S G T M U V W . . X Y x H A Z `  .. ",
". ..+.@.#.A $.%.&.u . *.=.M -.;.>.,.'.. ",
". ).!.~.{.].^./.(._.:.<.[.M #.}.|.1.2.. ",
". . 3.4.5.6.7.8.9.0.a.b.j c.d.e.f.g.h.. ",
". . i.j.k.l.m.n.o.p.q.r.s.t.u.v.w.x.. . ",
". . . y.z.A.B.C.D.E.F.G.H.I.J.K.L.. . . ",
". . . . . . . . . . . . . . . . . . . . "};
